{
  "connection": "default",
  "collectionName": "",
  "info": {
    "name": "images",
    "description": ""
  },
  "options": {
    "timestamps": true
  },
  "attributes": {
    "image": {
      "model": "file",
      "via": "related",
      "plugin": "upload"
    },
    "name": {
      "type": "string"
    }
  }
}