{
  "routes": [
    {
      "method": "GET",
      "path": "/channels",
      "handler": "Channels.find",
      "config": {
        "policies": []
      }
    },
    {
      "method": "GET",
      "path": "/channels/:_id",
      "handler": "Channels.findOne",
      "config": {
        "policies": []
      }
    },
    {
      "method": "GET",
      "path": "/channels/:_id/posts",
      "handler": "Channels.posts",
      "config": {
        "policies": []
      }
    },
    {
      "method": "GET",
      "path": "/channels/:_id/count",
      "handler": "Channels.count",
      "config": {
        "policies": []
      }
    },
    {
      "method": "POST",
      "path": "/channels",
      "handler": "Channels.create",
      "config": {
        "policies": []
      }
    },
    {
      "method": "PUT",
      "path": "/channels/:_id",
      "handler": "Channels.update",
      "config": {
        "policies": []
      }
    },
    {
      "method": "DELETE",
      "path": "/channels/:_id",
      "handler": "Channels.destroy",
      "config": {
        "policies": []
      }
    }
  ]
}