{
  "connection": "default",
  "collectionName": "channels",
  "info": {
    "name": "channels",
    "description": ""
  },
  "options": {
    "timestamps": true
  },
  "attributes": {
    "name": {
      "type": "string"
    },
    "beiträge": {
      "type": "integer"
    }
  }
}